<?xml version="1.0" encoding="utf-8"?>
<!DOCTYPE svg PUBLIC "-//W3C//DTD SVG 1.1//EN" "http://www.w3.org/Graphics/SVG/1.1/DTD/svg11.dtd">
<svg xmlns="http://www.w3.org/2000/svg" xmlns:xlink="http://www.w3.org/1999/xlink" viewBox="0 0 1200 240" enable-background="new 0 0 1200 240" xml:space="preserve">
	<linearGradient id="verloop" gradientUnits="userSpaceOnUse" x1="40" y1="0" x2="40" y2="240">
		<stop  offset="0.0" style="stop-color:#000000; stop-opacity:0.0"/>
		<stop  offset="0.4" style="stop-color:#000000; stop-opacity:0.3"/>
		<stop  offset="1.0" style="stop-color:#000000; stop-opacity:0.5"/>
	</linearGradient>
	<rect fill="url(#verloop)" width="1200" height="240"/>
</svg>