<?xml version="1.0" encoding="utf-8"?>
<!DOCTYPE svg PUBLIC "-//W3C//DTD SVG 1.1//EN" "http://www.w3.org/Graphics/SVG/1.1/DTD/svg11.dtd">
<svg version="1.1" id="Layer_1" xmlns="http://www.w3.org/2000/svg" xmlns:xlink="http://www.w3.org/1999/xlink" x="0px" y="0px"
	 width="445px" height="90px" viewBox="0 0 445 90" enable-background="new 0 0 445 90" xml:space="preserve" fill="#ffffff">
	<g>
		<path d="M0.3,70.6l8-1.9V26.4l-8.2-2v-9.6l25.2-2.9l1.8,0.9v6.7h0.8c6.5-4.6,13.2-7.7,22.2-7.7
			c10.8,0,17.7,4.7,17.7,16.9v40.6l5.8,1.5v9.3h-32v-9.3L48,69V35.1c0-6.6-3.2-8.6-9.6-8.6c-3.9,0-7.2,1-10.5,2.2V69l6.6,1.7v9.3H0.3
			V70.6z"/>
		<path d="M80.8,70.6l5.9-1.6V26.4l-8.2-2v-9.6l25.2-2.9l1.8,0.9v9.5h0.8c3.6-5.6,9.4-10.4,17-10.4
			c1.1,0,2.7,0.3,3.4,0.5v17.2c-1.5-0.4-3.8-0.5-5.6-0.5c-6.2,0-10.8,1-14.7,3v36.1l9.8,1.7v10H80.8V70.6z"/>
		<path d="M129,46.9c0-24.7,15.2-35.3,36.5-35.3c7.6,0,15.2,1.1,19.5,2.7V34h-12.2l-2-9.6c-1.4-0.5-2.8-1-6.5-1
			c-9.1,0-14.7,6.2-14.7,21.9c0,17.1,7.9,22.6,19.8,22.6c7.1,0,13.1-1.5,16.4-2.9v10.4c-4.2,2.9-11.4,6.2-22.6,6.2
			C140.4,81.6,129,68.2,129,46.9"/>
		<path d="M222.7,77.4l10.1-0.9V19.9L222.4,19v-2.7l14.2-1.3l0.6,0.4v6.9h0.3c7.3-4.3,16-7.9,24.8-7.9
			c11.8,0,18,5.3,18,16.7v45.3l10.1,0.9v2.5h-25.1v-2.5l10.4-0.9V32.6c0-9.6-4.4-14.1-15.1-14.1c-8.2,0-16.2,3.2-23.3,7v51l10.5,0.9
			v2.5h-25.2V77.4z"/>
		<path d="M292.1,47.6c0-21.6,11.7-33.1,27.1-33.1c16,0,25,10.9,25,31.1H297c-0.4,19.5,5.8,31.6,25.3,31.6
			c9.8,0,15.3-2.4,19.8-4.6v3c-4.1,2.4-10.5,5.3-20.5,5.3C299,80.9,292.1,66.1,292.1,47.6 M339.2,41.8c-0.3-16.1-7.5-24-20.1-24
			c-13.1,0-20.9,9.4-21.9,24.5L339.2,41.8z"/>
		<path fill="#d30910" d="M206.6,57.6c-6.5,0-11.7,5.3-11.7,11.8c0,6.5,5.3,11.8,11.7,11.8c6.5,0,11.7-5.3,11.7-11.8
			C218.4,62.9,213.1,57.6,206.6,57.6"/>
		<path d="M419.7,66.7V19.3h-7.8v-2.5l7.9-1.3L420.5,0h3.7v15.5h18.5v3.8h-18.5v46.4c0,8.6,3.4,11.4,10.9,11.4
			c3.3,0,6.3-0.8,9.1-1.8V78c-2.7,1.5-6.8,2.8-10.6,2.8C425.4,80.8,419.7,77,419.7,66.7"/>
		<polygon points="347.2,77.4 354.9,76.6 375,47.6 354.4,18.9 347.2,18.1 347.2,15.5 368.6,15.5 368.6,18.1 
			359.6,18.9 377.5,43.9 394.9,18.9 385.6,18.1 385.6,15.5 406.1,15.5 406.1,18.1 399.2,18.9 379.7,47 400.9,76.6 408.5,77.4 
			408.5,79.9 386.9,79.9 386.9,77.4 395.8,76.7 377.2,50.7 359.2,76.7 368.6,77.4 368.6,79.9 347.2,79.9 	"/>
	</g>
</svg>
